{"logLevel":"debug","message":"multithreading is set to false"}
{"logLevel":"debug","message":"Using reflection to scan dependencies for gauge implementations..."}
SLF4J: Failed to load class "org.slf4j.impl.StaticLoggerBinder".
SLF4J: Defaulting to no-operation (NOP) logger implementation
SLF4J: See http://www.slf4j.org/codes.html#StaticLoggerBinder for further details.
{"logLevel":"debug","message":"gauge-java took 837milliseconds to load and scan. This should be less than 'runner_connection_timeout' config value."}
{"logLevel":"debug","message":"run 'gauge config runner_connection_timeout' and verify that it is < 837"}
{"logLevel":"debug","message":"starting gRPC server..."}
{"logLevel":"debug","message":"started gRPC server on port 58736"}
{"logLevel":"info","message":"Listening on port:58736"}
{"logLevel":"debug","message":"Scanning packages for steps"}
{"logLevel":"debug","message":"Comparing 'example.loginImplementation.clickContinue' and 'example.loginImplementation.clickContinue'"}
{"logLevel":"debug","message":"Found Click on Continue in current project scope."}
{"logLevel":"debug","message":"Comparing 'example.loginImplementation.enterInValidUsername' and 'example.loginImplementation.enterInValidUsername'"}
{"logLevel":"debug","message":"Found Enter invalid username in current project scope."}
{"logLevel":"debug","message":"Comparing 'example.loginImplementation.clickStaySignedInCheckbox' and 'example.loginImplementation.clickStaySignedInCheckbox'"}
{"logLevel":"debug","message":"Found Activate checkbox to stay signed in in current project scope."}
{"logLevel":"debug","message":"Comparing 'example.loginImplementation.gotoANXEnginePage' and 'example.loginImplementation.gotoANXEnginePage'"}
{"logLevel":"debug","message":"Found Goto anexia internal-engine page in current project scope."}
{"logLevel":"debug","message":"Comparing 'example.loginImplementation.enterValidUsername' and 'example.loginImplementation.enterValidUsername'"}
{"logLevel":"debug","message":"Found Enter valid username in current project scope."}
{"logLevel":"debug","message":"Comparing 'example.userImplementation.clickLogout' and 'example.userImplementation.clickLogout'"}
{"logLevel":"debug","message":"Found Click on logout in current project scope."}
{"logLevel":"debug","message":"Comparing 'example.loginImplementation.clickLogin' and 'example.loginImplementation.clickLogin'"}
{"logLevel":"debug","message":"Found Click on Login in current project scope."}
{"logLevel":"debug","message":"Comparing 'example.userImplementation.verifyLogoutMsg' and 'example.userImplementation.verifyLogoutMsg'"}
{"logLevel":"debug","message":"Found Verify LogoutMsg in current project scope."}
{"logLevel":"debug","message":"Comparing 'example.loginImplementation.verifySuccessfulLogin' and 'example.loginImplementation.verifySuccessfulLogin'"}
{"logLevel":"debug","message":"Found Verify if login was successful in current project scope."}
{"logLevel":"debug","message":"Comparing 'example.userImplementation.openProfile' and 'example.userImplementation.openProfile'"}
{"logLevel":"debug","message":"Found Open profile module in current project scope."}
{"logLevel":"debug","message":"Comparing 'example.loginImplementation.EnterValidPassword' and 'example.loginImplementation.EnterValidPassword'"}
{"logLevel":"debug","message":"Found Enter valid password in current project scope."}
{"logLevel":"debug","message":"Comparing 'example.loginImplementation.verifyTextofErrorMsg' and 'example.loginImplementation.verifyTextofErrorMsg'"}
{"logLevel":"debug","message":"Found Verify text of errorMsg in current project scope."}
{"logLevel":"debug","message":"Scanning packages for hooks"}
{"logLevel":"debug","message":"Scanned steps (using static parsing + reflections): "}
{"logLevel":"debug","message":"\tEnter invalid username : public void enterInValidUsername() throws InterruptedException"}
{"logLevel":"debug","message":"\tGoto anexia internal-engine page : public void gotoANXEnginePage() throws InterruptedException"}
{"logLevel":"debug","message":"\tActivate checkbox to stay signed in : public void clickStaySignedInCheckbox()"}
{"logLevel":"debug","message":"\tOpen profile module : public void openProfile() throws InterruptedException"}
{"logLevel":"debug","message":"\tClick on Login : public void clickLogin()"}
{"logLevel":"debug","message":"\tClick on logout : public void clickLogout() throws InterruptedException"}
{"logLevel":"debug","message":"\tVerify text of errorMsg : public void verifyTextofErrorMsg() throws InterruptedException"}
{"logLevel":"debug","message":"\tVerify LogoutMsg : public void verifyLogoutMsg() throws InterruptedException"}
{"logLevel":"debug","message":"\tEnter valid password : public void EnterValidPassword()"}
{"logLevel":"debug","message":"\tVerify if login was successful : public void verifySuccessfulLogin()"}
{"logLevel":"debug","message":"\tClick on Continue : public void clickContinue()"}
{"logLevel":"debug","message":"\tEnter valid username : public void enterValidUsername() throws InterruptedException"}
---------------null
1596718992954	geckodriver	INFO	Listening on 127.0.0.1:33888
1596718993546	mozrunner::runner	INFO	Running command: "C:\\Program Files\\Mozilla Firefox\\firefox.exe" "--marionette" "-foreground" "-no-remote" "-profile" "C:\\Users\\EOBERR~1\\AppData\\Local\\Temp\\rust_mozprofilehScxfm"
JavaScript error: resource://gre/modules/XULStore.jsm, line 66: Error: Can't find profile directory.
console.error: SearchCache: "_readCacheFile: Error reading cache file:" (new Error("", "(unknown module)"))
1596718996255	Marionette	INFO	Listening on port 58746
1596718996658	Marionette	WARN	TLS certificate errors will be ignored for this session
Aug. 06, 2020 3:03:16 PM org.openqa.selenium.remote.ProtocolHandshake createSession
INFO: Detected dialect: W3C
{"logLevel":"debug","message":"Executing 'Open profile module' using 'class example.userImplementation.openProfile"}
expiry = Thu Aug 06 14:32:11 CET 1970
--------------------------------anxt_sess=86a8f250d91a8364f435a3f42d6c8a3a; expires=Do., 06 Aug. 1970 02:32:11 MEZ; path=/; domain=integration.ps.anexia-it.com
JavaScript warning: https://integration.ps.anexia-it.com/assets/core/js/vue-utils.js?ve=7c3641c24c63f1d2398240ffffb82a57, line 62711: unreachable code after return statement
--------------------------------PHPSESSID=06904ff13e91d552737280fb6d8a64ac; path=/; domain=integration.ps.anexia-it.com
JavaScript warning: https://integration.ps.anexia-it.com/assets/core/js/vue-utils.js?ve=7c3641c24c63f1d2398240ffffb82a57, line 62711: unreachable code after return statement
JavaScript warning: https://integration.ps.anexia-it.com/assets/core/js/vue-utils.js?ve=7c3641c24c63f1d2398240ffffb82a57, line 62711: unreachable code after return statement
1596719001284	Marionette	INFO	Stopped listening on port 58746

###!!! [Child][RunMessage] Error: Channel closing: too late to send/recv, messages will be lost


###!!! [Child][MessageChannel::SendAndWait] Error: Channel error: cannot send/recv

