{"logLevel":"debug","message":"multithreading is set to false"}
{"logLevel":"debug","message":"Using reflection to scan dependencies for gauge implementations..."}
SLF4J: Failed to load class "org.slf4j.impl.StaticLoggerBinder".
SLF4J: Defaulting to no-operation (NOP) logger implementation
SLF4J: See http://www.slf4j.org/codes.html#StaticLoggerBinder for further details.
{"logLevel":"debug","message":"gauge-java took 1039milliseconds to load and scan. This should be less than 'runner_connection_timeout' config value."}
{"logLevel":"debug","message":"run 'gauge config runner_connection_timeout' and verify that it is < 1039"}
{"logLevel":"debug","message":"starting gRPC server..."}
{"logLevel":"debug","message":"started gRPC server on port 58302"}
{"logLevel":"info","message":"Listening on port:58302"}
{"logLevel":"debug","message":"Scanning packages for steps"}
{"logLevel":"debug","message":"Comparing 'tests.Organization.Account.Users_Teams.UserTeamsTest.verifyToolTip' and 'tests.Organization.Account.Users_Teams.UserTeamsTest.verifyToolTip'"}
{"logLevel":"debug","message":"Found Verify ToolTip for DeleteBtn in current project scope."}
{"logLevel":"debug","message":"Comparing 'tests.Login.LoginTest.clickLogin' and 'tests.Login.LoginTest.clickLogin'"}
{"logLevel":"debug","message":"Found Click on Login in current project scope."}
{"logLevel":"debug","message":"Comparing 'tests.API.CorpITServices.sendPostRequest' and 'tests.API.CorpITServices.sendPostRequest'"}
{"logLevel":"debug","message":"Found Create a new Corporate Service in current project scope."}
{"logLevel":"debug","message":"Comparing 'tests.Organization.Account.Users_Teams.UserTeamsTest.verifyLogoutMsg' and 'tests.Organization.Account.Users_Teams.UserTeamsTest.verifyLogoutMsg'"}
{"logLevel":"debug","message":"Found Verify LogoutMsg in current project scope."}
{"logLevel":"debug","message":"Comparing 'tests.Organization.Account.Users_Teams.UserTeamsTest.editUser' and 'tests.Organization.Account.Users_Teams.UserTeamsTest.editUser'"}
{"logLevel":"debug","message":"Found Edit User in current project scope."}
{"logLevel":"debug","message":"Comparing 'tests.Organization.Account.Users_Teams.UserTeamsTest.clickOnUsersTeams' and 'tests.Organization.Account.Users_Teams.UserTeamsTest.clickOnUsersTeams'"}
{"logLevel":"debug","message":"Found Click on Users&Teams in current project scope."}
{"logLevel":"debug","message":"Comparing 'tests.Login.LoginTest.enterInValidUsername' and 'tests.Login.LoginTest.enterInValidUsername'"}
{"logLevel":"debug","message":"Found Enter invalid username in current project scope."}
{"logLevel":"debug","message":"Comparing 'tests.Organization.Account.Users_Teams.UserTeamsTest.addDatatoModal' and 'tests.Organization.Account.Users_Teams.UserTeamsTest.addDatatoModal'"}
{"logLevel":"debug","message":"Found Enter data within the modal in current project scope."}
{"logLevel":"debug","message":"Comparing 'tests.Login.LoginTest.clickStaySignedInCheckbox' and 'tests.Login.LoginTest.clickStaySignedInCheckbox'"}
{"logLevel":"debug","message":"Found Activate checkbox to stay signed in in current project scope."}
{"logLevel":"debug","message":"Comparing 'tests.Login.LoginTest.clickContinue' and 'tests.Login.LoginTest.clickContinue'"}
{"logLevel":"debug","message":"Found Click on Continue in current project scope."}
{"logLevel":"debug","message":"Comparing 'tests.Organization.Account.Users_Teams.UserTeamsTest.clickOnANEXIA' and 'tests.Organization.Account.Users_Teams.UserTeamsTest.clickOnANEXIA'"}
{"logLevel":"debug","message":"Found Click on Account within ANEXIA scope in current project scope."}
{"logLevel":"debug","message":"Comparing 'tests.Organization.Account.Users_Teams.UserTeamsTest.goToTeams' and 'tests.Organization.Account.Users_Teams.UserTeamsTest.goToTeams'"}
{"logLevel":"debug","message":"Found Go to Teams in current project scope."}
{"logLevel":"debug","message":"Comparing 'tests.BasicTestImplementation.selectOption' and 'tests.BasicTestImplementation.selectOption'"}
{"logLevel":"debug","message":"Found Select a option {} {} in current project scope."}
{"logLevel":"debug","message":"Comparing 'tests.API.CorpITServices.sendGetRequest' and 'tests.API.CorpITServices.sendGetRequest'"}
{"logLevel":"debug","message":"Found Send GET request in current project scope."}
{"logLevel":"debug","message":"Comparing 'tests.Organization.UserProfile.UserProfileTest.clickOnUserProfile' and 'tests.Organization.UserProfile.UserProfileTest.clickOnUserProfile'"}
{"logLevel":"debug","message":"Found Click on User Profile within Organization in current project scope."}
{"logLevel":"debug","message":"Comparing 'tests.Login.LoginTest.gotoANXEnginePage' and 'tests.Login.LoginTest.gotoANXEnginePage'"}
{"logLevel":"debug","message":"Found Goto anexia internal-engine page in current project scope."}
{"logLevel":"debug","message":"Comparing 'tests.Organization.Account.Users_Teams.UserTeamsTest.searchForUser' and 'tests.Organization.Account.Users_Teams.UserTeamsTest.searchForUser'"}
{"logLevel":"debug","message":"Found Search in current project scope."}
{"logLevel":"debug","message":"Comparing 'tests.Organization.Account.Users_Teams.UserTeamsTest.openProfile' and 'tests.Organization.Account.Users_Teams.UserTeamsTest.openProfile'"}
{"logLevel":"debug","message":"Found Open integration page with stored cookies in current project scope."}
{"logLevel":"debug","message":"Comparing 'tests.Organization.Account.Users_Teams.UserTeamsTest.clickOnAddUser' and 'tests.Organization.Account.Users_Teams.UserTeamsTest.clickOnAddUser'"}
{"logLevel":"debug","message":"Found Click on Add User in current project scope."}
{"logLevel":"debug","message":"Comparing 'tests.Login.LoginTest.verifyTextofErrorMsg' and 'tests.Login.LoginTest.verifyTextofErrorMsg'"}
{"logLevel":"debug","message":"Found Verify text of errorMsg in current project scope."}
{"logLevel":"debug","message":"Comparing 'tests.Organization.Account.Users_Teams.UserTeamsTest.verifyEditation' and 'tests.Organization.Account.Users_Teams.UserTeamsTest.verifyEditation'"}
{"logLevel":"debug","message":"Found Verify editation in current project scope."}
{"logLevel":"debug","message":"Comparing 'tests.Organization.Account.Users_Teams.UserTeamsTest.clickOnUsername' and 'tests.Organization.Account.Users_Teams.UserTeamsTest.clickOnUsername'"}
{"logLevel":"debug","message":"Found Click on username in current project scope."}
{"logLevel":"debug","message":"Comparing 'tests.Login.LoginTest.enterValidUsername' and 'tests.Login.LoginTest.enterValidUsername'"}
{"logLevel":"debug","message":"Found Enter valid username in current project scope."}
{"logLevel":"debug","message":"Comparing 'tests.Login.LoginTest.verifySuccessfulLogin' and 'tests.Login.LoginTest.verifySuccessfulLogin'"}
{"logLevel":"debug","message":"Found Verify if login was successful in current project scope."}
{"logLevel":"debug","message":"Comparing 'tests.Organization.Account.Users_Teams.UserTeamsTest.editTeam' and 'tests.Organization.Account.Users_Teams.UserTeamsTest.editTeam'"}
{"logLevel":"debug","message":"Found Edit Team in current project scope."}
{"logLevel":"debug","message":"Comparing 'tests.Login.LoginTest.EnterValidPassword' and 'tests.Login.LoginTest.EnterValidPassword'"}
{"logLevel":"debug","message":"Found Enter valid password in current project scope."}
{"logLevel":"debug","message":"Comparing 'tests.Organization.Account.Users_Teams.UserTeamsTest.deleteUser' and 'tests.Organization.Account.Users_Teams.UserTeamsTest.deleteUser'"}
{"logLevel":"debug","message":"Found Delete User in current project scope."}
{"logLevel":"debug","message":"Comparing 'tests.Organization.Account.Users_Teams.UserTeamsTest.clickLogout' and 'tests.Organization.Account.Users_Teams.UserTeamsTest.clickLogout'"}
{"logLevel":"debug","message":"Found Click on logout in current project scope."}
{"logLevel":"debug","message":"Scanning packages for hooks"}
{"logLevel":"debug","message":"Scanned steps (using static parsing + reflections): "}
{"logLevel":"debug","message":"\tSelect a option {} {} : public void selectOption(String id, String value) throws InterruptedException"}
{"logLevel":"debug","message":"\tSend GET request : public void sendGetRequest() throws InterruptedException, IOException"}
{"logLevel":"debug","message":"\tEdit Team : public void editTeam() throws InterruptedException"}
{"logLevel":"debug","message":"\tActivate checkbox to stay signed in : public void clickStaySignedInCheckbox()"}
{"logLevel":"debug","message":"\tGo to Teams : public void goToTeams() throws InterruptedException"}
{"logLevel":"debug","message":"\tEdit User : public void editUser() throws InterruptedException"}
{"logLevel":"debug","message":"\tClick on username : public void clickOnUsername() throws InterruptedException"}
{"logLevel":"debug","message":"\tClick on Users&Teams : public void clickOnUsersTeams() throws InterruptedException"}
{"logLevel":"debug","message":"\tCreate a new Corporate Service : public void sendPostRequest() throws InterruptedException, IOException"}
{"logLevel":"debug","message":"\tVerify text of errorMsg : public void verifyTextofErrorMsg() throws InterruptedException"}
{"logLevel":"debug","message":"\tSearch : public void searchForUser() throws InterruptedException"}
{"logLevel":"debug","message":"\tEnter valid password : public void EnterValidPassword()"}
{"logLevel":"debug","message":"\tVerify if login was successful : public void verifySuccessfulLogin()"}
{"logLevel":"debug","message":"\tEnter data within the modal : public void addDatatoModal() throws InterruptedException"}
{"logLevel":"debug","message":"\tEnter invalid username : public void enterInValidUsername() throws InterruptedException"}
{"logLevel":"debug","message":"\tVerify editation : public void verifyEditation() throws InterruptedException"}
{"logLevel":"debug","message":"\tOpen integration page with stored cookies : public void openProfile() throws InterruptedException"}
{"logLevel":"debug","message":"\tVerify ToolTip for DeleteBtn : public void verifyToolTip() throws InterruptedException"}
{"logLevel":"debug","message":"\tClick on Account within ANEXIA scope : public void clickOnANEXIA() throws InterruptedException"}
{"logLevel":"debug","message":"\tDelete User : public void deleteUser() throws InterruptedException"}
{"logLevel":"debug","message":"\tGoto anexia internal-engine page : public void gotoANXEnginePage() throws InterruptedException"}
{"logLevel":"debug","message":"\tClick on Login : public void clickLogin()"}
{"logLevel":"debug","message":"\tClick on logout : public void clickLogout() throws InterruptedException"}
{"logLevel":"debug","message":"\tVerify LogoutMsg : public void verifyLogoutMsg() throws InterruptedException"}
{"logLevel":"debug","message":"\tClick on Continue : public void clickContinue()"}
{"logLevel":"debug","message":"\tClick on User Profile within Organization : public void clickOnUserProfile() throws InterruptedException"}
{"logLevel":"debug","message":"\tEnter valid username : public void enterValidUsername() throws InterruptedException"}
{"logLevel":"debug","message":"\tClick on Add User : public void clickOnAddUser() throws InterruptedException"}
---------------FIREFOX
1599735238241	geckodriver	INFO	Listening on 127.0.0.1:47091
1599735238872	mozrunner::runner	INFO	Running command: "C:\\Program Files\\Mozilla Firefox\\firefox.exe" "--marionette" "-foreground" "-no-remote" "-profile" "C:\\Users\\EOBERR~1\\AppData\\Local\\Temp\\rust_mozprofile4i0Z9T"
JavaScript error: resource://gre/modules/XULStore.jsm, line 66: Error: Can't find profile directory.
console.error: SearchCache: "_readCacheFile: Error reading cache file:" (new Error("", "(unknown module)"))
1599735242170	Marionette	INFO	Listening on port 58313
1599735242544	Marionette	WARN	TLS certificate errors will be ignored for this session
Sept. 10, 2020 12:54:02 PM org.openqa.selenium.remote.ProtocolHandshake createSession
INFO: Detected dialect: W3C
JavaScript error: resource://gre/modules/URIFixup.jsm, line 281: NS_ERROR_FAILURE: Should pass a non-null uri
{"logLevel":"debug","message":"Executing 'Open integration page with stored cookies' using 'class tests.Organization.Account.Users_Teams.UserTeamsTest.openProfile"}
expiry = Thu Sep 10 11:59:07 CET 1970
--------------------------------anxt_sess=87ac4458270413e15ac624b61f79ce5b; expires=Do., 10 Sept. 1970 11:59:07 MEZ; path=/; domain=integration.ps.anexia-it.com
--------------------------------PHPSESSID=310d6aea06fcb23d40b5bc17460ab4b5; path=/; domain=integration.ps.anexia-it.com
JavaScript warning: https://integration.ps.anexia-it.com/assets/core/js/vue-utils.js?ve=8de9746ca172443eca383764f4d8bf46, line 62744: unreachable code after return statement
{"logLevel":"debug","message":"Executing 'Click on User Profile within Organization' using 'class tests.Organization.UserProfile.UserProfileTest.clickOnUserProfile"}
