{"logLevel":"debug","message":"multithreading is set to false"}
{"logLevel":"debug","message":"Using reflection to scan dependencies for gauge implementations..."}
SLF4J: Failed to load class "org.slf4j.impl.StaticLoggerBinder".
SLF4J: Defaulting to no-operation (NOP) logger implementation
SLF4J: See http://www.slf4j.org/codes.html#StaticLoggerBinder for further details.
{"logLevel":"debug","message":"gauge-java took 1105milliseconds to load and scan. This should be less than 'runner_connection_timeout' config value."}
{"logLevel":"debug","message":"run 'gauge config runner_connection_timeout' and verify that it is < 1105"}
{"logLevel":"debug","message":"starting gRPC server..."}
{"logLevel":"debug","message":"started gRPC server on port 58696"}
{"logLevel":"info","message":"Listening on port:58696"}
{"logLevel":"debug","message":"Scanning packages for steps"}
{"logLevel":"debug","message":"Comparing 'example.loginImplementation.clickContinue' and 'example.loginImplementation.clickContinue'"}
{"logLevel":"debug","message":"Found Click on Continue in current project scope."}
{"logLevel":"debug","message":"Comparing 'example.loginImplementation.enterInValidUsername' and 'example.loginImplementation.enterInValidUsername'"}
{"logLevel":"debug","message":"Found Enter invalid username in current project scope."}
{"logLevel":"debug","message":"Comparing 'example.loginImplementation.clickStaySignedInCheckbox' and 'example.loginImplementation.clickStaySignedInCheckbox'"}
{"logLevel":"debug","message":"Found Activate checkbox to stay signed in in current project scope."}
{"logLevel":"debug","message":"Comparing 'example.loginImplementation.enterValidUsername' and 'example.loginImplementation.enterValidUsername'"}
{"logLevel":"debug","message":"Found Enter valid username in current project scope."}
{"logLevel":"debug","message":"Comparing 'example.userImplementation.clickOnUsername' and 'example.userImplementation.clickOnUsername'"}
{"logLevel":"debug","message":"Found Click on username in current project scope."}
{"logLevel":"debug","message":"Comparing 'example.userImplementation.addDatatoModal' and 'example.userImplementation.addDatatoModal'"}
{"logLevel":"debug","message":"Found Enter data within the modal in current project scope."}
{"logLevel":"debug","message":"Comparing 'example.userImplementation.clickOnUsersTeams' and 'example.userImplementation.clickOnUsersTeams'"}
{"logLevel":"debug","message":"Found Click on Users&Teams in current project scope."}
{"logLevel":"debug","message":"Comparing 'example.userImplementation.clickLogout' and 'example.userImplementation.clickLogout'"}
{"logLevel":"debug","message":"Found Click on logout in current project scope."}
{"logLevel":"debug","message":"Comparing 'example.userImplementation.clickONANEXIA' and 'example.userImplementation.clickONANEXIA'"}
{"logLevel":"debug","message":"Found Click on Account within ANEXIA scope in current project scope."}
{"logLevel":"debug","message":"Comparing 'example.loginImplementation.verifySuccessfulLogin' and 'example.loginImplementation.verifySuccessfulLogin'"}
{"logLevel":"debug","message":"Found Verify if login was successful in current project scope."}
{"logLevel":"debug","message":"Comparing 'example.loginImplementation.EnterValidPassword' and 'example.loginImplementation.EnterValidPassword'"}
{"logLevel":"debug","message":"Found Enter valid password in current project scope."}
{"logLevel":"debug","message":"Comparing 'example.loginImplementation.gotoANXEnginePage' and 'example.loginImplementation.gotoANXEnginePage'"}
{"logLevel":"debug","message":"Found Goto anexia internal-engine page in current project scope."}
{"logLevel":"debug","message":"Comparing 'example.loginImplementation.clickLogin' and 'example.loginImplementation.clickLogin'"}
{"logLevel":"debug","message":"Found Click on Login in current project scope."}
{"logLevel":"debug","message":"Comparing 'example.userImplementation.verifyLogoutMsg' and 'example.userImplementation.verifyLogoutMsg'"}
{"logLevel":"debug","message":"Found Verify LogoutMsg in current project scope."}
{"logLevel":"debug","message":"Comparing 'example.userImplementation.clickOnAddUser' and 'example.userImplementation.clickOnAddUser'"}
{"logLevel":"debug","message":"Found Click on Add User in current project scope."}
{"logLevel":"debug","message":"Comparing 'example.userImplementation.openProfile' and 'example.userImplementation.openProfile'"}
{"logLevel":"debug","message":"Found Open integration page with stored cookies in current project scope."}
{"logLevel":"debug","message":"Comparing 'example.loginImplementation.verifyTextofErrorMsg' and 'example.loginImplementation.verifyTextofErrorMsg'"}
{"logLevel":"debug","message":"Found Verify text of errorMsg in current project scope."}
{"logLevel":"debug","message":"Scanning packages for hooks"}
{"logLevel":"debug","message":"Scanned steps (using static parsing + reflections): "}
{"logLevel":"debug","message":"\tEnter invalid username : public void enterInValidUsername() throws InterruptedException"}
{"logLevel":"debug","message":"\tOpen integration page with stored cookies : public void openProfile() throws InterruptedException"}
{"logLevel":"debug","message":"\tClick on Account within ANEXIA scope : public void clickONANEXIA() throws InterruptedException"}
{"logLevel":"debug","message":"\tGoto anexia internal-engine page : public void gotoANXEnginePage() throws InterruptedException"}
{"logLevel":"debug","message":"\tActivate checkbox to stay signed in : public void clickStaySignedInCheckbox()"}
{"logLevel":"debug","message":"\tClick on Login : public void clickLogin()"}
{"logLevel":"debug","message":"\tClick on logout : public void clickLogout() throws InterruptedException"}
{"logLevel":"debug","message":"\tClick on username : public void clickOnUsername() throws InterruptedException"}
{"logLevel":"debug","message":"\tClick on Users&Teams : public void clickOnUsersTeams() throws InterruptedException"}
{"logLevel":"debug","message":"\tVerify text of errorMsg : public void verifyTextofErrorMsg() throws InterruptedException"}
{"logLevel":"debug","message":"\tVerify LogoutMsg : public void verifyLogoutMsg() throws InterruptedException"}
{"logLevel":"debug","message":"\tEnter valid password : public void EnterValidPassword()"}
{"logLevel":"debug","message":"\tVerify if login was successful : public void verifySuccessfulLogin()"}
{"logLevel":"debug","message":"\tClick on Continue : public void clickContinue()"}
{"logLevel":"debug","message":"\tEnter valid username : public void enterValidUsername() throws InterruptedException"}
{"logLevel":"debug","message":"\tEnter data within the modal : public void addDatatoModal() throws InterruptedException"}
{"logLevel":"debug","message":"\tClick on Add User : public void clickOnAddUser() throws InterruptedException"}
---------------FIREFOX
1596783182633	geckodriver	INFO	Listening on 127.0.0.1:31805
1596783183228	mozrunner::runner	INFO	Running command: "C:\\Program Files\\Mozilla Firefox\\firefox.exe" "--marionette" "-foreground" "-no-remote" "-profile" "C:\\Users\\EOBERR~1\\AppData\\Local\\Temp\\rust_mozprofilevpVkr6"
JavaScript error: resource://gre/modules/XULStore.jsm, line 66: Error: Can't find profile directory.
console.error: SearchCache: "_readCacheFile: Error reading cache file:" (new Error("", "(unknown module)"))
1596783186179	Marionette	INFO	Listening on port 58713
1596783186347	Marionette	WARN	TLS certificate errors will be ignored for this session
Aug. 07, 2020 8:53:06 AM org.openqa.selenium.remote.ProtocolHandshake createSession
INFO: Detected dialect: W3C
{"logLevel":"debug","message":"Executing 'Open integration page with stored cookies' using 'class example.userImplementation.openProfile"}
expiry = Fri Aug 07 08:52:33 CET 1970
--------------------------------anxt_sess=bad915f6731b72cbebae0425fe8367f4; expires=Fr., 07 Aug. 1970 08:52:33 MEZ; path=/; domain=integration.ps.anexia-it.com
--------------------------------PHPSESSID=4fe4ef02e13c73c6c71994679294e1dd; path=/; domain=integration.ps.anexia-it.com
JavaScript warning: https://integration.ps.anexia-it.com/assets/core/js/vue-utils.js?ve=6e69a70b29aabee2a8a1646ca7c27f75, line 62717: unreachable code after return statement
{"logLevel":"debug","message":"Executing 'Click on Account within ANEXIA scope' using 'class example.userImplementation.clickONANEXIA"}
JavaScript warning: https://integration.ps.anexia-it.com/assets/core/js/vue-utils.js?ve=6e69a70b29aabee2a8a1646ca7c27f75, line 62717: unreachable code after return statement
JavaScript warning: https://integration.ps.anexia-it.com/assets/core/js/vue-utils.js?ve=6e69a70b29aabee2a8a1646ca7c27f75, line 62717: unreachable code after return statement
{"logLevel":"debug","message":"Executing 'Click on Users&Teams' using 'class example.userImplementation.clickOnUsersTeams"}
JavaScript warning: https://integration.ps.anexia-it.com/assets/core/js/vue-utils.js?ve=6e69a70b29aabee2a8a1646ca7c27f75, line 62717: unreachable code after return statement
JavaScript warning: https://integration.ps.anexia-it.com/assets/core/js/resource-reseller.js?ve=6e69a70b29aabee2a8a1646ca7c27f75, line 83: unreachable code after return statement
JavaScript warning: https://integration.ps.anexia-it.com/assets/core/js/resource-reseller.js?ve=6e69a70b29aabee2a8a1646ca7c27f75, line 120: unreachable code after return statement
{"logLevel":"debug","message":"Executing 'Click on Add User' using 'class example.userImplementation.clickOnAddUser"}
Element is present
{"logLevel":"debug","message":"Executing 'Enter data within the modal' using 'class example.userImplementation.addDatatoModal"}
