{"logLevel":"debug","message":"multithreading is set to false"}
{"logLevel":"debug","message":"Using reflection to scan dependencies for gauge implementations..."}
SLF4J: Failed to load class "org.slf4j.impl.StaticLoggerBinder".
SLF4J: Defaulting to no-operation (NOP) logger implementation
SLF4J: See http://www.slf4j.org/codes.html#StaticLoggerBinder for further details.
{"logLevel":"debug","message":"gauge-java took 4261milliseconds to load and scan. This should be less than 'runner_connection_timeout' config value."}
{"logLevel":"debug","message":"run 'gauge config runner_connection_timeout' and verify that it is < 4261"}
{"logLevel":"debug","message":"starting gRPC server..."}
{"logLevel":"debug","message":"started gRPC server on port 65189"}
{"logLevel":"info","message":"Listening on port:65189"}
{"logLevel":"debug","message":"Scanning packages for steps"}
{"logLevel":"debug","message":"Comparing 'example.loginImplementation.clickContinue' and 'example.loginImplementation.clickContinue'"}
{"logLevel":"debug","message":"Found Click on Continue in current project scope."}
{"logLevel":"debug","message":"Comparing 'example.loginImplementation.enterValidUsername' and 'example.loginImplementation.enterValidUsername'"}
{"logLevel":"debug","message":"Found Enter valid username in current project scope."}
{"logLevel":"debug","message":"Comparing 'example.loginImplementation.gotoANXEnginePage' and 'example.loginImplementation.gotoANXEnginePage'"}
{"logLevel":"debug","message":"Found Goto anexia internal-engine page in current project scope."}
{"logLevel":"debug","message":"Comparing 'example.loginImplementation.clickLogin' and 'example.loginImplementation.clickLogin'"}
{"logLevel":"debug","message":"Found Click on Login in current project scope."}
{"logLevel":"debug","message":"Comparing 'example.loginImplementation.verifySuccessfulLogin' and 'example.loginImplementation.verifySuccessfulLogin'"}
{"logLevel":"debug","message":"Found Verify if login was successful in current project scope."}
{"logLevel":"debug","message":"Comparing 'example.loginImplementation.EnterValidPassword' and 'example.loginImplementation.EnterValidPassword'"}
{"logLevel":"debug","message":"Found Enter valid password in current project scope."}
{"logLevel":"debug","message":"Scanning packages for hooks"}
{"logLevel":"debug","message":"Scanned steps (using static parsing + reflections): "}
{"logLevel":"debug","message":"\tGoto anexia internal-engine page : public void gotoANXEnginePage() throws InterruptedException"}
{"logLevel":"debug","message":"\tEnter valid password : public void EnterValidPassword()"}
{"logLevel":"debug","message":"\tVerify if login was successful : public void verifySuccessfulLogin()"}
{"logLevel":"debug","message":"\tClick on Continue : public void clickContinue()"}
{"logLevel":"debug","message":"\tEnter valid username : public void enterValidUsername() throws InterruptedException"}
{"logLevel":"debug","message":"\tClick on Login : public void clickLogin()"}
