{"logLevel":"debug","message":"multithreading is set to false"}
{"logLevel":"debug","message":"Using reflection to scan dependencies for gauge implementations..."}
SLF4J: Failed to load class "org.slf4j.impl.StaticLoggerBinder".
SLF4J: Defaulting to no-operation (NOP) logger implementation
SLF4J: See http://www.slf4j.org/codes.html#StaticLoggerBinder for further details.
{"logLevel":"debug","message":"gauge-java took 1112milliseconds to load and scan. This should be less than 'runner_connection_timeout' config value."}
{"logLevel":"debug","message":"run 'gauge config runner_connection_timeout' and verify that it is < 1112"}
{"logLevel":"debug","message":"starting gRPC server..."}
{"logLevel":"debug","message":"started gRPC server on port 50961"}
{"logLevel":"info","message":"Listening on port:50961"}
{"logLevel":"debug","message":"Scanning packages for steps"}
{"logLevel":"debug","message":"Comparing 'example.loginImplementation.clickContinue' and 'example.loginImplementation.clickContinue'"}
{"logLevel":"debug","message":"Found Click on Continue in current project scope."}
{"logLevel":"debug","message":"Comparing 'example.loginImplementation.enterInValidUsername' and 'example.loginImplementation.enterInValidUsername'"}
{"logLevel":"debug","message":"Found Enter invalid username in current project scope."}
{"logLevel":"debug","message":"Comparing 'example.loginImplementation.clickStaySignedInCheckbox' and 'example.loginImplementation.clickStaySignedInCheckbox'"}
{"logLevel":"debug","message":"Found Activate checkbox to stay signed in in current project scope."}
{"logLevel":"debug","message":"Comparing 'example.loginImplementation.enterValidUsername' and 'example.loginImplementation.enterValidUsername'"}
{"logLevel":"debug","message":"Found Enter valid username in current project scope."}
{"logLevel":"debug","message":"Comparing 'example.userImplementation.clickOnUsername' and 'example.userImplementation.clickOnUsername'"}
{"logLevel":"debug","message":"Found Click on username in current project scope."}
{"logLevel":"debug","message":"Comparing 'example.userImplementation.addDatatoModal' and 'example.userImplementation.addDatatoModal'"}
{"logLevel":"debug","message":"Found Enter data within the modal in current project scope."}
{"logLevel":"debug","message":"Comparing 'example.userImplementation.clickOnUsersTeams' and 'example.userImplementation.clickOnUsersTeams'"}
{"logLevel":"debug","message":"Found Click on Users&Teams in current project scope."}
{"logLevel":"debug","message":"Comparing 'example.userImplementation.clickLogout' and 'example.userImplementation.clickLogout'"}
{"logLevel":"debug","message":"Found Click on logout in current project scope."}
{"logLevel":"debug","message":"Comparing 'example.userImplementation.clickONANEXIA' and 'example.userImplementation.clickONANEXIA'"}
{"logLevel":"debug","message":"Found Click on Account within ANEXIA scope in current project scope."}
{"logLevel":"debug","message":"Comparing 'example.loginImplementation.verifySuccessfulLogin' and 'example.loginImplementation.verifySuccessfulLogin'"}
{"logLevel":"debug","message":"Found Verify if login was successful in current project scope."}
{"logLevel":"debug","message":"Comparing 'example.loginImplementation.EnterValidPassword' and 'example.loginImplementation.EnterValidPassword'"}
{"logLevel":"debug","message":"Found Enter valid password in current project scope."}
{"logLevel":"debug","message":"Comparing 'example.userImplementation.searchForUser' and 'example.userImplementation.searchForUser'"}
{"logLevel":"debug","message":"Found Search for User in current project scope."}
{"logLevel":"debug","message":"Comparing 'example.loginImplementation.gotoANXEnginePage' and 'example.loginImplementation.gotoANXEnginePage'"}
{"logLevel":"debug","message":"Found Goto anexia internal-engine page in current project scope."}
{"logLevel":"debug","message":"Comparing 'example.loginImplementation.clickLogin' and 'example.loginImplementation.clickLogin'"}
{"logLevel":"debug","message":"Found Click on Login in current project scope."}
{"logLevel":"debug","message":"Comparing 'example.userImplementation.verifyLogoutMsg' and 'example.userImplementation.verifyLogoutMsg'"}
{"logLevel":"debug","message":"Found Verify LogoutMsg in current project scope."}
{"logLevel":"debug","message":"Comparing 'example.userImplementation.clickOnAddUser' and 'example.userImplementation.clickOnAddUser'"}
{"logLevel":"debug","message":"Found Click on Add User in current project scope."}
{"logLevel":"debug","message":"Comparing 'example.userImplementation.openProfile' and 'example.userImplementation.openProfile'"}
{"logLevel":"debug","message":"Found Open integration page with stored cookies in current project scope."}
{"logLevel":"debug","message":"Comparing 'example.loginImplementation.verifyTextofErrorMsg' and 'example.loginImplementation.verifyTextofErrorMsg'"}
{"logLevel":"debug","message":"Found Verify text of errorMsg in current project scope."}
{"logLevel":"debug","message":"Scanning packages for hooks"}
{"logLevel":"debug","message":"Scanned steps (using static parsing + reflections): "}
{"logLevel":"debug","message":"\tEnter invalid username : public void enterInValidUsername() throws InterruptedException"}
{"logLevel":"debug","message":"\tOpen integration page with stored cookies : public void openProfile() throws InterruptedException"}
{"logLevel":"debug","message":"\tSearch for User : public void searchForUser() throws InterruptedException"}
{"logLevel":"debug","message":"\tClick on Account within ANEXIA scope : public void clickONANEXIA() throws InterruptedException"}
{"logLevel":"debug","message":"\tGoto anexia internal-engine page : public void gotoANXEnginePage() throws InterruptedException"}
{"logLevel":"debug","message":"\tActivate checkbox to stay signed in : public void clickStaySignedInCheckbox()"}
{"logLevel":"debug","message":"\tClick on Login : public void clickLogin()"}
{"logLevel":"debug","message":"\tClick on logout : public void clickLogout() throws InterruptedException"}
{"logLevel":"debug","message":"\tClick on username : public void clickOnUsername() throws InterruptedException"}
{"logLevel":"debug","message":"\tClick on Users&Teams : public void clickOnUsersTeams() throws InterruptedException"}
{"logLevel":"debug","message":"\tVerify text of errorMsg : public void verifyTextofErrorMsg() throws InterruptedException"}
{"logLevel":"debug","message":"\tVerify LogoutMsg : public void verifyLogoutMsg() throws InterruptedException"}
{"logLevel":"debug","message":"\tEnter valid password : public void EnterValidPassword()"}
{"logLevel":"debug","message":"\tVerify if login was successful : public void verifySuccessfulLogin()"}
{"logLevel":"debug","message":"\tClick on Continue : public void clickContinue()"}
{"logLevel":"debug","message":"\tEnter valid username : public void enterValidUsername() throws InterruptedException"}
{"logLevel":"debug","message":"\tEnter data within the modal : public void addDatatoModal() throws InterruptedException"}
{"logLevel":"debug","message":"\tClick on Add User : public void clickOnAddUser() throws InterruptedException"}
---------------FIREFOX
1597036623671	geckodriver	INFO	Listening on 127.0.0.1:34274
1597036624275	mozrunner::runner	INFO	Running command: "C:\\Program Files\\Mozilla Firefox\\firefox.exe" "--marionette" "-foreground" "-no-remote" "-profile" "C:\\Users\\EOBERR~1\\AppData\\Local\\Temp\\rust_mozprofileiDp3ra"
JavaScript error: resource://gre/modules/XULStore.jsm, line 66: Error: Can't find profile directory.
console.error: SearchCache: "_readCacheFile: Error reading cache file:" (new Error("", "(unknown module)"))
1597036627295	Marionette	INFO	Listening on port 50971
1597036627388	Marionette	WARN	TLS certificate errors will be ignored for this session
Aug. 10, 2020 7:17:07 AM org.openqa.selenium.remote.ProtocolHandshake createSession
INFO: Detected dialect: W3C
{"logLevel":"debug","message":"Executing 'Open integration page with stored cookies' using 'class example.userImplementation.openProfile"}
expiry = Mon Aug 10 07:15:28 CET 1970
--------------------------------anxt_sess=3cc292d38562d8d3ee43050c4703162b; expires=Mo., 10 Aug. 1970 07:15:28 MEZ; path=/; domain=integration.ps.anexia-it.com
--------------------------------PHPSESSID=54424d6017113e49e64e21e6cbf6fc90; path=/; domain=integration.ps.anexia-it.com
JavaScript warning: https://integration.ps.anexia-it.com/assets/core/js/vue-utils.js?ve=085a41449ac59f92f86879239ecb3d50, line 62741: unreachable code after return statement
{"logLevel":"debug","message":"Executing 'Click on Account within ANEXIA scope' using 'class example.userImplementation.clickONANEXIA"}
JavaScript warning: https://integration.ps.anexia-it.com/assets/core/js/vue-utils.js?ve=085a41449ac59f92f86879239ecb3d50, line 62741: unreachable code after return statement
JavaScript warning: https://integration.ps.anexia-it.com/assets/core/js/vue-utils.js?ve=085a41449ac59f92f86879239ecb3d50, line 62741: unreachable code after return statement
{"logLevel":"debug","message":"Executing 'Click on Users&Teams' using 'class example.userImplementation.clickOnUsersTeams"}
JavaScript warning: https://integration.ps.anexia-it.com/assets/core/js/vue-utils.js?ve=085a41449ac59f92f86879239ecb3d50, line 62741: unreachable code after return statement
JavaScript warning: https://integration.ps.anexia-it.com/assets/core/js/resource-reseller.js?ve=085a41449ac59f92f86879239ecb3d50, line 83: unreachable code after return statement
JavaScript warning: https://integration.ps.anexia-it.com/assets/core/js/resource-reseller.js?ve=085a41449ac59f92f86879239ecb3d50, line 120: unreachable code after return statement
{"logLevel":"debug","message":"Executing 'Search for User' using 'class example.userImplementation.searchForUser"}
---------------
