{"logLevel":"debug","message":"multithreading is set to false"}
{"logLevel":"debug","message":"Using reflection to scan dependencies for gauge implementations..."}
SLF4J: Failed to load class "org.slf4j.impl.StaticLoggerBinder".
SLF4J: Defaulting to no-operation (NOP) logger implementation
SLF4J: See http://www.slf4j.org/codes.html#StaticLoggerBinder for further details.
{"logLevel":"debug","message":"gauge-java took 2614milliseconds to load and scan. This should be less than 'runner_connection_timeout' config value."}
{"logLevel":"debug","message":"run 'gauge config runner_connection_timeout' and verify that it is < 2614"}
{"logLevel":"debug","message":"starting gRPC server..."}
{"logLevel":"debug","message":"started gRPC server on port 52567"}
{"logLevel":"info","message":"Listening on port:52567"}
{"logLevel":"debug","message":"Scanning packages for steps"}
{"logLevel":"debug","message":"Comparing 'example.loginImplementation.clickContinue' and 'example.loginImplementation.clickContinue'"}
{"logLevel":"debug","message":"Found Click on Continue in current project scope."}
{"logLevel":"debug","message":"Comparing 'example.loginImplementation.enterInValidUsername' and 'example.loginImplementation.enterInValidUsername'"}
{"logLevel":"debug","message":"Found Enter invalid username in current project scope."}
{"logLevel":"debug","message":"Comparing 'example.loginImplementation.clickStaySignedInCheckbox' and 'example.loginImplementation.clickStaySignedInCheckbox'"}
{"logLevel":"debug","message":"Found Activate checkbox to stay signed in in current project scope."}
{"logLevel":"debug","message":"Comparing 'example.loginImplementation.enterValidUsername' and 'example.loginImplementation.enterValidUsername'"}
{"logLevel":"debug","message":"Found Enter valid username in current project scope."}
{"logLevel":"debug","message":"Comparing 'example.userImplementation.clickOnUsername' and 'example.userImplementation.clickOnUsername'"}
{"logLevel":"debug","message":"Found Click on username in current project scope."}
{"logLevel":"debug","message":"Comparing 'example.userImplementation.addDatatoModal' and 'example.userImplementation.addDatatoModal'"}
{"logLevel":"debug","message":"Found Enter data within the modal in current project scope."}
{"logLevel":"debug","message":"Comparing 'example.userImplementation.clickOnUsersTeams' and 'example.userImplementation.clickOnUsersTeams'"}
{"logLevel":"debug","message":"Found Click on Users&Teams in current project scope."}
{"logLevel":"debug","message":"Comparing 'example.userImplementation.clickLogout' and 'example.userImplementation.clickLogout'"}
{"logLevel":"debug","message":"Found Click on logout in current project scope."}
{"logLevel":"debug","message":"Comparing 'example.userImplementation.clickONANEXIA' and 'example.userImplementation.clickONANEXIA'"}
{"logLevel":"debug","message":"Found Click on Account within ANEXIA scope in current project scope."}
{"logLevel":"debug","message":"Comparing 'example.loginImplementation.verifySuccessfulLogin' and 'example.loginImplementation.verifySuccessfulLogin'"}
{"logLevel":"debug","message":"Found Verify if login was successful in current project scope."}
{"logLevel":"debug","message":"Comparing 'example.loginImplementation.EnterValidPassword' and 'example.loginImplementation.EnterValidPassword'"}
{"logLevel":"debug","message":"Found Enter valid password in current project scope."}
{"logLevel":"debug","message":"Comparing 'example.loginImplementation.gotoANXEnginePage' and 'example.loginImplementation.gotoANXEnginePage'"}
{"logLevel":"debug","message":"Found Goto anexia internal-engine page in current project scope."}
{"logLevel":"debug","message":"Comparing 'example.loginImplementation.clickLogin' and 'example.loginImplementation.clickLogin'"}
{"logLevel":"debug","message":"Found Click on Login in current project scope."}
{"logLevel":"debug","message":"Comparing 'example.userImplementation.verifyLogoutMsg' and 'example.userImplementation.verifyLogoutMsg'"}
{"logLevel":"debug","message":"Found Verify LogoutMsg in current project scope."}
{"logLevel":"debug","message":"Comparing 'example.userImplementation.clickOnAddUser' and 'example.userImplementation.clickOnAddUser'"}
{"logLevel":"debug","message":"Found Click on Add User in current project scope."}
{"logLevel":"debug","message":"Comparing 'example.userImplementation.openProfile' and 'example.userImplementation.openProfile'"}
{"logLevel":"debug","message":"Found Open integration page with stored cookies in current project scope."}
{"logLevel":"debug","message":"Comparing 'example.loginImplementation.verifyTextofErrorMsg' and 'example.loginImplementation.verifyTextofErrorMsg'"}
{"logLevel":"debug","message":"Found Verify text of errorMsg in current project scope."}
{"logLevel":"debug","message":"Scanning packages for hooks"}
{"logLevel":"debug","message":"Scanned steps (using static parsing + reflections): "}
{"logLevel":"debug","message":"\tEnter invalid username : public void enterInValidUsername() throws InterruptedException"}
{"logLevel":"debug","message":"\tOpen integration page with stored cookies : public void openProfile() throws InterruptedException"}
{"logLevel":"debug","message":"\tClick on Account within ANEXIA scope : public void clickONANEXIA() throws InterruptedException"}
{"logLevel":"debug","message":"\tGoto anexia internal-engine page : public void gotoANXEnginePage() throws InterruptedException"}
{"logLevel":"debug","message":"\tActivate checkbox to stay signed in : public void clickStaySignedInCheckbox()"}
{"logLevel":"debug","message":"\tClick on Login : public void clickLogin()"}
{"logLevel":"debug","message":"\tClick on logout : public void clickLogout() throws InterruptedException"}
{"logLevel":"debug","message":"\tClick on username : public void clickOnUsername() throws InterruptedException"}
{"logLevel":"debug","message":"\tClick on Users&Teams : public void clickOnUsersTeams() throws InterruptedException"}
{"logLevel":"debug","message":"\tVerify text of errorMsg : public void verifyTextofErrorMsg() throws InterruptedException"}
{"logLevel":"debug","message":"\tVerify LogoutMsg : public void verifyLogoutMsg() throws InterruptedException"}
{"logLevel":"debug","message":"\tEnter valid password : public void EnterValidPassword()"}
{"logLevel":"debug","message":"\tVerify if login was successful : public void verifySuccessfulLogin()"}
{"logLevel":"debug","message":"\tClick on Continue : public void clickContinue()"}
{"logLevel":"debug","message":"\tEnter valid username : public void enterValidUsername() throws InterruptedException"}
{"logLevel":"debug","message":"\tEnter data within the modal : public void addDatatoModal() throws InterruptedException"}
{"logLevel":"debug","message":"\tClick on Add User : public void clickOnAddUser() throws InterruptedException"}
