c:\Users\eoberrauner\GaugeProjects\Acceptance Testing\src\test\java\driver\DriverFactory.java
c:\Users\eoberrauner\GaugeProjects\Acceptance Testing\src\test\java\pages\Organization\Account\Users_Teams\PermissionGroups.java
c:\Users\eoberrauner\GaugeProjects\Acceptance Testing\src\test\java\driver\Driver.java
c:\Users\eoberrauner\GaugeProjects\Acceptance Testing\src\test\java\pages\Global\Buttons\GlobalButtons.java
c:\Users\eoberrauner\GaugeProjects\Acceptance Testing\src\test\java\tests\API\CorpITServices.java
c:\Users\eoberrauner\GaugeProjects\Acceptance Testing\src\test\java\tests\Login\LoginTest.java
c:\Users\eoberrauner\GaugeProjects\Acceptance Testing\src\test\java\pages\Organization\Account\Users_Teams\Teams.java
c:\Users\eoberrauner\GaugeProjects\Acceptance Testing\src\test\java\tests\BasicTestImplementation.java
c:\Users\eoberrauner\GaugeProjects\Acceptance Testing\src\test\java\tests\Organization\UserProfile\UserProfileTest.java
c:\Users\eoberrauner\GaugeProjects\Acceptance Testing\src\test\java\pages\Login\Login.java
c:\Users\eoberrauner\GaugeProjects\Acceptance Testing\src\test\java\pages\Organization\Account\Users_Teams\Users.java
c:\Users\eoberrauner\GaugeProjects\Acceptance Testing\src\test\java\pages\BasePage.java
c:\Users\eoberrauner\GaugeProjects\Acceptance Testing\src\test\java\pages\Organization\UserProfile\UserProfile.java
c:\Users\eoberrauner\GaugeProjects\Acceptance Testing\src\test\java\tests\Organization\Account\Users_Teams\UserTeamsTest.java
